﻿Boxes Plus Water
24,18
1,0♦1,0♦1,0♦1,0♦1,0♦1,0♦1,0♦1,0♦1,0♦1,0♦1,0♦1,0♦1,0♦1,0♦1,0♦1,0♦1,0♦1,0♦1,0♦1,0♦1,0♦1,0♦1,0♦1,0
1,0♦0,0♦0,0♦0,0♦5,0♦5,0♦5,0♦5,0♦1,0♦1,0♦1,0♦1,0♦1,0♦1,0♦1,0♦1,0♦1,0♦1,0♦1,0♦1,0♦1,0♦1,0♦1,0♦1,0
1,0♦0,0♦0,0♦0,0♦0,0♦0,0♦0,0♦5,0♦1,0♦1,0♦1,0♦1,0♦1,0♦1,0♦1,0♦1,0♦1,0♦1,0♦1,0♦1,0♦1,0♦1,0♦1,0♦1,0
1,0♦0,0♦0,0♦0,0♦5,0♦5,0♦0,0♦5,0♦1,0♦0,0♦0,0♦0,0♦0,0♦5,0♦5,0♦5,0♦0,0♦0,0♦0,0♦0,0♦0,0♦1,0♦1,0♦1,0
1,0♦1,0♦1,0♦1,0♦1,0♦5,0♦0,0♦5,0♦1,0♦0,0♦0,0♦0,0♦0,0♦5,0♦5,0♦5,0♦0,0♦0,0♦0,0♦0,0♦0,0♦1,0♦1,0♦1,0
1,0♦1,0♦1,0♦1,0♦1,0♦0,0♦0,0♦0,0♦1,0♦0,0♦0,0♦0,0♦0,0♦5,0♦5,0♦5,0♦0,0♦0,0♦0,0♦0,0♦0,0♦0,0♦0,0♦1,0
1,0♦1,0♦1,0♦1,0♦1,0♦0,0♦0,0♦0,0♦1,0♦0,0♦0,0♦0,0♦0,0♦5,0♦5,0♦5,0♦0,0♦0,0♦0,0♦0,0♦0,0♦1,0♦0,0♦1,0
1,0♦1,0♦1,0♦1,0♦1,0♦0,0♦0,0♦0,0♦1,0♦0,0♦0,0♦0,0♦0,0♦5,0♦5,0♦5,0♦0,0♦0,0♦0,0♦0,0♦0,0♦1,0♦0,0♦1,0
1,0♦1,0♦1,0♦1,0♦1,0♦1,0♦0,0♦1,0♦1,0♦1,0♦1,0♦1,0♦1,0♦1,0♦1,0♦1,0♦1,0♦1,0♦1,0♦1,0♦1,0♦1,0♦0,0♦1,0
1,0♦1,0♦1,0♦1,0♦1,0♦0,0♦0,0♦0,0♦1,0♦1,0♦1,0♦1,0♦1,0♦1,0♦1,0♦1,0♦1,0♦1,0♦1,0♦1,0♦1,0♦1,0♦0,0♦1,0
1,0♦1,0♦1,0♦1,0♦5,0♦0,0♦0,0♦0,0♦0,0♦0,0♦5,0♦0,0♦0,0♦0,0♦0,0♦1,0♦0,0♦0,0♦0,0♦5,0♦1,0♦1,0♦0,0♦1,0
1,0♦1,0♦1,0♦1,0♦5,0♦0,0♦0,0♦0,0♦0,0♦0,0♦5,0♦0,0♦0,0♦0,0♦0,0♦0,0♦0,0♦0,0♦0,0♦5,0♦1,0♦1,0♦0,0♦1,0
1,0♦1,0♦1,0♦1,0♦5,0♦0,0♦0,0♦0,0♦0,0♦0,0♦5,0♦0,0♦0,0♦0,0♦0,0♦0,0♦0,0♦0,0♦0,0♦5,0♦1,0♦1,0♦0,0♦1,0
1,0♦1,0♦1,0♦1,0♦5,0♦0,0♦0,0♦0,0♦0,0♦0,0♦5,0♦0,0♦0,0♦0,0♦0,0♦1,0♦0,0♦0,0♦0,0♦5,0♦1,0♦1,0♦0,0♦1,0
1,0♦1,0♦1,0♦1,0♦5,0♦5,0♦5,0♦5,0♦5,0♦1,0♦1,0♦1,0♦1,0♦1,0♦1,0♦1,0♦1,0♦1,0♦0,0♦1,0♦1,0♦1,0♦0,0♦1,0
1,0♦1,0♦1,0♦1,0♦1,0♦1,0♦1,0♦1,0♦1,0♦1,0♦1,0♦1,0♦1,0♦1,0♦1,0♦1,0♦1,0♦1,0♦0,0♦1,0♦1,0♦1,0♦0,0♦1,0
1,0♦1,0♦1,0♦1,0♦1,0♦1,0♦1,0♦1,0♦1,0♦1,0♦1,0♦1,0♦1,0♦1,0♦1,0♦1,0♦1,0♦1,0♦0,0♦0,0♦0,0♦0,0♦0,0♦1,0
1,0♦1,0♦1,0♦1,0♦1,0♦1,0♦1,0♦1,0♦1,0♦1,0♦1,0♦1,0♦1,0♦1,0♦1,0♦1,0♦1,0♦1,0♦1,0♦1,0♦1,0♦1,0♦1,0♦1,0
~
box(16,4♦normal)
box(17,4♦normal)
box(18,7♦normal)
box(16,11♦normal)
box(15,12♦normal)
box(15,11♦normal)
box(9,11♦normal)
box(6,8♦normal)
gem(6,2)
gem(5,7)
gem(7,7)
gem(5,13)
gem(10,12)
gem(13,12)
gem(13,11)
gem(18,16)
gem(22,16)
gem(22,11)
gem(22,5)
gem(20,3)
gem(20,7)
gem(9,7)
gem(9,3)
exit(10,5)
