﻿Four Chambers
40,40
1,0♦1,0♦1,0♦1,0♦1,0♦1,0♦1,0♦1,0♦1,0♦1,0♦1,0♦1,0♦1,0♦1,0♦1,0♦1,0♦1,0♦1,0♦1,0♦1,0♦1,0♦1,0♦1,0♦1,0♦1,0♦1,0♦1,0♦1,0♦1,0♦1,0♦1,0♦1,0♦1,0♦1,0♦1,0♦1,0♦1,0♦1,0♦1,0♦1,0
1,0♦1,0♦1,0♦1,0♦1,0♦1,0♦1,1♦0,0♦2,1♦1,0♦1,0♦1,0♦1,0♦1,0♦1,0♦1,0♦1,0♦1,0♦1,0♦1,0♦1,0♦1,0♦1,0♦0,0♦0,0♦0,0♦0,0♦0,0♦0,0♦0,0♦0,0♦0,0♦0,0♦0,0♦0,0♦0,0♦0,0♦0,0♦0,0♦1,0
1,0♦0,0♦0,0♦0,0♦0,0♦1,0♦1,1♦1,0♦3,1♦1,0♦1,0♦1,0♦1,0♦1,0♦1,0♦1,0♦1,0♦0,0♦0,0♦0,0♦1,0♦1,0♦1,0♦0,0♦0,0♦0,0♦0,0♦0,0♦0,0♦0,0♦0,0♦0,0♦0,0♦0,0♦0,0♦0,0♦0,0♦0,0♦0,0♦1,0
1,0♦0,0♦0,0♦0,0♦0,0♦1,0♦1,1♦1,0♦3,1♦1,0♦0,0♦0,0♦0,0♦1,0♦1,0♦1,0♦5,0♦0,0♦0,0♦0,0♦1,0♦1,0♦1,0♦0,0♦0,0♦0,0♦0,0♦0,0♦0,0♦0,0♦0,0♦0,0♦0,0♦0,0♦0,0♦0,0♦0,0♦0,0♦0,0♦1,0
1,0♦5,0♦1,0♦1,0♦1,0♦1,0♦1,1♦1,0♦3,1♦1,0♦0,0♦0,0♦0,0♦1,0♦1,0♦1,0♦1,0♦0,0♦0,0♦0,0♦1,0♦1,0♦1,0♦0,0♦0,0♦0,0♦0,0♦0,0♦0,0♦0,0♦0,0♦0,0♦0,0♦0,0♦0,0♦0,0♦0,0♦0,0♦0,0♦1,0
1,0♦0,0♦0,0♦3,0♦3,0♦2,1♦1,1♦1,0♦3,1♦1,0♦0,0♦0,0♦0,0♦1,0♦1,0♦1,0♦1,0♦0,0♦0,0♦5,0♦1,0♦1,0♦1,0♦0,0♦0,0♦0,0♦0,0♦0,0♦0,0♦0,0♦0,0♦0,0♦0,0♦0,0♦0,0♦0,0♦0,0♦0,0♦0,0♦1,0
1,0♦0,0♦0,0♦0,0♦2,0♦0,0♦2,1♦1,0♦3,1♦1,0♦1,0♦0,0♦1,0♦1,0♦1,0♦1,0♦1,0♦0,0♦0,0♦0,0♦1,0♦1,0♦1,0♦0,0♦0,0♦0,0♦0,0♦0,0♦0,0♦0,0♦0,0♦0,0♦0,0♦0,0♦0,0♦0,0♦0,0♦0,0♦0,0♦1,0
1,0♦0,0♦0,0♦0,0♦0,0♦0,0♦0,0♦1,0♦3,1♦1,0♦1,0♦0,0♦1,0♦1,0♦1,0♦1,0♦1,0♦0,0♦0,0♦0,0♦1,0♦1,0♦1,0♦0,0♦0,0♦0,0♦0,0♦0,0♦0,0♦0,0♦0,0♦0,0♦0,0♦0,0♦0,0♦0,0♦0,0♦0,0♦0,0♦1,0
1,0♦0,0♦0,0♦0,0♦0,0♦0,0♦0,0♦1,0♦3,1♦1,0♦1,0♦0,0♦1,0♦1,0♦1,0♦0,0♦0,0♦0,0♦0,0♦0,0♦1,0♦1,0♦1,0♦0,0♦0,0♦0,0♦0,0♦0,0♦0,0♦0,0♦0,0♦0,0♦0,0♦0,0♦0,0♦0,0♦0,0♦0,0♦0,0♦1,0
1,0♦0,0♦0,0♦0,0♦0,0♦0,0♦0,0♦0,0♦0,0♦1,0♦1,0♦0,0♦1,0♦1,0♦1,0♦0,0♦0,0♦0,0♦0,0♦5,0♦1,0♦1,0♦1,0♦0,0♦0,0♦0,0♦0,0♦0,0♦0,0♦0,0♦0,0♦0,0♦0,0♦0,0♦0,0♦0,0♦0,0♦0,0♦0,0♦1,0
1,0♦1,0♦1,0♦1,0♦1,0♦1,0♦1,0♦0,0♦0,0♦1,0♦1,0♦0,0♦1,0♦1,0♦1,0♦0,0♦0,0♦0,0♦0,0♦5,0♦1,0♦1,0♦1,0♦0,0♦0,0♦0,0♦0,0♦0,0♦0,0♦0,0♦0,0♦0,0♦0,0♦0,0♦0,0♦0,0♦0,0♦0,0♦0,0♦1,0
1,0♦1,0♦1,0♦1,0♦1,0♦1,0♦1,0♦0,0♦1,0♦1,0♦1,0♦0,0♦1,0♦1,0♦1,0♦0,0♦1,0♦1,0♦1,0♦1,0♦1,0♦1,0♦1,0♦0,0♦0,0♦0,0♦0,0♦0,0♦0,0♦0,0♦0,0♦0,0♦0,0♦0,0♦0,0♦0,0♦0,0♦0,0♦0,0♦1,0
1,0♦1,0♦1,0♦1,0♦1,0♦1,0♦1,0♦0,0♦0,0♦0,0♦0,0♦0,0♦0,0♦0,0♦0,0♦0,0♦1,0♦1,0♦1,0♦1,0♦1,0♦1,0♦1,0♦0,0♦0,0♦0,0♦0,0♦0,0♦0,0♦0,0♦0,0♦0,0♦0,0♦0,0♦0,0♦0,0♦0,0♦0,0♦0,0♦1,0
1,0♦1,0♦1,0♦1,0♦1,0♦1,0♦1,0♦1,0♦1,0♦0,0♦0,0♦0,0♦0,0♦0,0♦1,0♦1,0♦1,0♦1,0♦1,0♦1,0♦1,0♦1,0♦1,0♦0,0♦0,0♦0,0♦0,0♦0,0♦0,0♦0,0♦0,0♦0,0♦0,0♦0,0♦0,0♦0,0♦0,0♦0,0♦0,0♦1,0
1,0♦1,0♦1,0♦1,0♦1,0♦1,0♦1,0♦5,0♦0,0♦0,0♦0,0♦0,0♦0,0♦0,0♦0,0♦0,0♦1,0♦1,0♦1,0♦1,0♦1,0♦1,0♦1,0♦0,0♦0,0♦0,0♦0,0♦0,0♦0,0♦0,0♦0,0♦0,0♦0,0♦0,0♦0,0♦0,0♦0,0♦0,0♦0,0♦1,0
1,0♦1,0♦1,0♦1,0♦1,0♦1,0♦1,0♦0,0♦0,0♦1,0♦1,0♦1,0♦1,0♦1,0♦1,0♦0,0♦1,0♦1,0♦1,0♦1,0♦1,0♦1,0♦1,0♦0,0♦0,0♦0,0♦0,0♦0,0♦0,0♦0,0♦0,0♦0,0♦0,0♦0,0♦0,0♦0,0♦0,0♦0,0♦0,0♦1,0
1,0♦5,0♦5,0♦5,0♦5,0♦5,0♦5,0♦0,0♦5,0♦1,0♦1,0♦1,0♦1,0♦1,0♦0,0♦0,0♦0,0♦0,1♦0,1♦0,1♦1,1♦2,1♦1,0♦0,0♦0,0♦0,0♦0,0♦0,0♦0,0♦0,0♦0,0♦0,0♦0,0♦0,0♦0,0♦0,0♦0,0♦0,0♦0,0♦1,0
1,0♦5,0♦1,0♦3,0♦3,0♦3,0♦3,0♦0,0♦5,0♦1,0♦1,0♦1,0♦1,0♦1,0♦0,0♦0,0♦0,0♦0,1♦0,1♦1,1♦1,1♦3,1♦1,0♦0,0♦0,0♦0,0♦0,0♦0,0♦0,0♦0,0♦0,0♦0,0♦0,0♦0,0♦0,0♦0,0♦0,0♦0,0♦0,0♦1,0
1,0♦5,0♦3,0♦3,0♦3,0♦3,0♦3,0♦3,0♦1,0♦1,0♦1,0♦1,0♦1,0♦1,0♦3,1♦1,1♦0,1♦1,1♦3,1♦2,1♦2,1♦1,1♦1,0♦0,0♦0,0♦0,0♦0,0♦0,0♦0,0♦0,0♦0,0♦0,0♦0,0♦0,0♦0,0♦0,0♦0,0♦0,0♦0,0♦1,0
1,0♦5,0♦3,0♦1,1♦3,0♦3,0♦0,0♦3,0♦5,0♦1,0♦1,0♦1,0♦1,0♦1,0♦3,1♦1,1♦1,1♦2,1♦0,1♦1,1♦1,1♦1,1♦1,0♦0,0♦0,0♦0,0♦0,0♦0,0♦0,0♦0,0♦0,0♦0,0♦0,0♦0,0♦0,0♦0,0♦0,0♦0,0♦0,0♦1,0
1,0♦5,0♦3,0♦3,0♦3,0♦3,0♦3,0♦3,0♦5,0♦1,0♦1,0♦1,0♦1,0♦1,0♦3,1♦1,1♦0,1♦0,1♦3,1♦1,1♦2,1♦2,1♦1,0♦0,0♦0,0♦0,0♦0,0♦0,0♦0,0♦0,0♦0,0♦0,0♦0,0♦0,0♦0,0♦0,0♦0,0♦0,0♦0,0♦1,0
1,0♦1,0♦3,0♦3,0♦3,0♦3,0♦3,0♦0,0♦5,0♦1,0♦1,0♦1,0♦1,0♦1,0♦3,1♦0,1♦1,1♦0,1♦1,1♦0,0♦0,1♦1,1♦1,0♦0,0♦0,0♦0,0♦0,0♦0,0♦0,0♦0,0♦0,0♦0,0♦0,0♦0,0♦0,0♦0,0♦0,0♦0,0♦0,0♦1,0
1,0♦5,0♦5,0♦0,0♦5,0♦5,0♦5,0♦5,0♦5,0♦1,0♦1,0♦1,0♦1,0♦1,0♦3,1♦2,1♦0,1♦1,1♦0,0♦0,0♦3,1♦1,1♦1,0♦0,0♦0,0♦0,0♦0,0♦0,0♦0,0♦0,0♦0,0♦0,0♦0,0♦0,0♦0,0♦0,0♦0,0♦0,0♦0,0♦1,0
1,0♦1,0♦1,0♦1,0♦1,0♦1,0♦1,0♦1,0♦1,0♦1,0♦1,0♦1,0♦1,0♦1,0♦3,1♦2,1♦2,1♦2,1♦2,1♦2,1♦2,1♦2,1♦1,0♦0,0♦0,0♦0,0♦0,0♦0,0♦0,0♦0,0♦0,0♦0,0♦0,0♦0,0♦0,0♦0,0♦0,0♦0,0♦0,0♦1,0
1,0♦1,0♦1,0♦1,0♦1,0♦1,0♦1,0♦1,0♦1,0♦1,0♦1,0♦1,0♦1,0♦1,0♦1,0♦1,0♦1,0♦1,0♦1,0♦1,0♦1,0♦1,0♦1,0♦0,0♦0,0♦0,0♦0,0♦0,0♦0,0♦0,0♦0,0♦0,0♦0,0♦0,0♦0,0♦0,0♦0,0♦0,0♦0,0♦1,0
1,0♦0,0♦0,0♦0,0♦0,0♦0,0♦0,0♦0,0♦0,0♦0,0♦0,0♦0,0♦0,0♦0,0♦0,0♦0,0♦0,0♦0,0♦0,0♦0,0♦0,0♦0,0♦0,0♦0,0♦0,0♦0,0♦0,0♦0,0♦0,0♦0,0♦0,0♦0,0♦0,0♦0,0♦0,0♦0,0♦0,0♦0,0♦0,0♦1,0
1,0♦0,0♦0,0♦0,0♦0,0♦0,0♦0,0♦0,0♦0,0♦0,0♦0,0♦0,0♦0,0♦0,0♦0,0♦0,0♦0,0♦0,0♦0,0♦0,0♦0,0♦0,0♦0,0♦0,0♦0,0♦0,0♦0,0♦0,0♦0,0♦0,0♦0,0♦0,0♦0,0♦0,0♦0,0♦0,0♦0,0♦0,0♦0,0♦1,0
1,0♦0,0♦0,0♦0,0♦0,0♦0,0♦0,0♦0,0♦0,0♦0,0♦0,0♦0,0♦0,0♦0,0♦0,0♦0,0♦0,0♦0,0♦0,0♦0,0♦0,0♦0,0♦0,0♦0,0♦0,0♦0,0♦0,0♦0,0♦0,0♦0,0♦0,0♦0,0♦0,0♦0,0♦0,0♦0,0♦0,0♦0,0♦0,0♦1,0
1,0♦0,0♦0,0♦0,0♦0,0♦0,0♦0,0♦0,0♦0,0♦0,0♦0,0♦0,0♦0,0♦0,0♦0,0♦0,0♦0,0♦0,0♦0,0♦0,0♦0,0♦0,0♦0,0♦0,0♦0,0♦0,0♦0,0♦0,0♦0,0♦0,0♦0,0♦0,0♦0,0♦0,0♦0,0♦0,0♦0,0♦0,0♦0,0♦1,0
1,0♦0,0♦0,0♦0,0♦0,0♦0,0♦0,0♦0,0♦0,0♦0,0♦0,0♦0,0♦0,0♦0,0♦0,0♦0,0♦0,0♦0,0♦0,0♦0,0♦0,0♦0,0♦0,0♦0,0♦0,0♦0,0♦0,0♦0,0♦0,0♦0,0♦0,0♦0,0♦0,0♦0,0♦0,0♦0,0♦0,0♦0,0♦0,0♦1,0
1,0♦0,0♦0,0♦0,0♦0,0♦0,0♦0,0♦0,0♦0,0♦0,0♦0,0♦0,0♦0,0♦0,0♦0,0♦0,0♦0,0♦0,0♦0,0♦0,0♦0,0♦0,0♦0,0♦0,0♦0,0♦0,0♦0,0♦0,0♦0,0♦0,0♦0,0♦0,0♦0,0♦0,0♦0,0♦0,0♦0,0♦0,0♦0,0♦1,0
1,0♦0,0♦0,0♦0,0♦0,0♦0,0♦0,0♦0,0♦0,0♦0,0♦0,0♦0,0♦0,0♦0,0♦0,0♦0,0♦0,0♦0,0♦0,0♦0,0♦0,0♦0,0♦0,0♦0,0♦0,0♦0,0♦0,0♦0,0♦0,0♦0,0♦0,0♦0,0♦0,0♦0,0♦0,0♦0,0♦0,0♦0,0♦0,0♦1,0
1,0♦0,0♦0,0♦0,0♦0,0♦0,0♦0,0♦0,0♦0,0♦0,0♦0,0♦0,0♦0,0♦0,0♦0,0♦0,0♦0,0♦0,0♦0,0♦0,0♦0,0♦0,0♦0,0♦0,0♦0,0♦0,0♦0,0♦0,0♦0,0♦0,0♦0,0♦0,0♦0,0♦0,0♦0,0♦0,0♦0,0♦0,0♦0,0♦1,0
1,0♦0,0♦0,0♦0,0♦0,0♦0,0♦0,0♦0,0♦0,0♦0,0♦0,0♦0,0♦0,0♦0,0♦0,0♦0,0♦0,0♦0,0♦0,0♦0,0♦0,0♦0,0♦0,0♦0,0♦0,0♦0,0♦0,0♦0,0♦0,0♦0,0♦0,0♦0,0♦0,0♦0,0♦0,0♦0,0♦0,0♦0,0♦0,0♦1,0
1,0♦0,0♦0,0♦0,0♦0,0♦0,0♦0,0♦0,0♦0,0♦0,0♦0,0♦0,0♦0,0♦0,0♦0,0♦0,0♦0,0♦0,0♦0,0♦0,0♦0,0♦0,0♦0,0♦0,0♦0,0♦0,0♦0,0♦0,0♦0,0♦0,0♦0,0♦0,0♦0,0♦0,0♦0,0♦0,0♦0,0♦0,0♦0,0♦1,0
1,0♦0,0♦0,0♦0,0♦0,0♦0,0♦0,0♦0,0♦0,0♦0,0♦0,0♦0,0♦0,0♦0,0♦0,0♦0,0♦0,0♦0,0♦0,0♦0,0♦0,0♦0,0♦0,0♦0,0♦0,0♦0,0♦0,0♦0,0♦0,0♦0,0♦0,0♦0,0♦0,0♦0,0♦0,0♦0,0♦0,0♦0,0♦0,0♦1,0
1,0♦0,0♦0,0♦0,0♦0,0♦0,0♦0,0♦0,0♦0,0♦0,0♦0,0♦0,0♦0,0♦0,0♦0,0♦0,0♦0,0♦0,0♦0,0♦0,0♦0,0♦0,0♦0,0♦0,0♦0,0♦0,0♦0,0♦0,0♦0,0♦0,0♦0,0♦0,0♦0,0♦0,0♦0,0♦0,0♦0,0♦0,0♦0,0♦1,0
1,0♦0,0♦0,0♦0,0♦0,0♦0,0♦0,0♦0,0♦0,0♦0,0♦0,0♦0,0♦0,0♦0,0♦0,0♦0,0♦0,0♦0,0♦0,0♦0,0♦0,0♦0,0♦0,0♦0,0♦0,0♦0,0♦0,0♦0,0♦0,0♦0,0♦0,0♦0,0♦0,0♦0,0♦0,0♦0,0♦0,0♦0,0♦0,0♦1,0
1,0♦0,0♦0,0♦0,0♦0,0♦0,0♦0,0♦0,0♦0,0♦0,0♦0,0♦0,0♦0,0♦0,0♦0,0♦0,0♦0,0♦0,0♦0,0♦0,0♦0,0♦0,0♦0,0♦0,0♦0,0♦0,0♦0,0♦0,0♦0,0♦0,0♦0,0♦0,0♦0,0♦0,0♦0,0♦0,0♦0,0♦0,0♦0,0♦1,0
1,0♦1,0♦1,0♦1,0♦1,0♦1,0♦1,0♦1,0♦1,0♦1,0♦1,0♦1,0♦1,0♦1,0♦1,0♦1,0♦1,0♦1,0♦1,0♦1,0♦1,0♦1,0♦1,0♦1,0♦1,0♦1,0♦1,0♦1,0♦1,0♦1,0♦1,0♦1,0♦1,0♦1,0♦1,0♦1,0♦1,0♦1,0♦1,0♦1,0
~
start(11,13)
box(18,6♦normal)
box(19,4♦normal)
box(15,8♦normal)
box(19,6♦normal)
box(19,7♦normal)
box(19,10♦normal)
box(18,5♦normal)
box(17,6♦normal)
box(18,8♦normal)
box(17,8♦normal)
box(18,10♦normal)
box(16,10♦normal)
box(17,9♦normal)
box(7,1♦normal)
box(3,9♦normal)
door(11,11♦0)
asthetic(13,6♦0,3♦1)
asthetic(13,5♦0,3♦1)
asthetic(13,4♦0,3♦1)
asthetic(13,3♦0,3♦1)
asthetic(13,2♦0,3♦1)
asthetic(13,1♦0,3♦1)
asthetic(13,0♦0,3♦1)
asthetic(14,0♦0,3♦1)
asthetic(15,0♦0,3♦1)
asthetic(16,0♦0,3♦1)
asthetic(17,0♦0,3♦1)
asthetic(18,0♦0,3♦1)
asthetic(9,9♦0,3♦1)
asthetic(9,8♦0,3♦1)
asthetic(9,7♦0,3♦1)
asthetic(9,6♦0,3♦1)
asthetic(9,5♦0,3♦1)
asthetic(9,4♦0,3♦1)
asthetic(9,3♦0,3♦1)
asthetic(9,2♦0,3♦1)
asthetic(9,1♦0,3♦1)
asthetic(9,0♦0,3♦1)
asthetic(8,0♦0,3♦1)
asthetic(7,0♦0,3♦1)
asthetic(6,0♦0,3♦1)
asthetic(5,0♦0,3♦1)
asthetic(4,0♦0,3♦1)
asthetic(13,10♦0,3♦1)
asthetic(13,11♦0,3♦1)
asthetic(14,11♦0,3♦1)
asthetic(15,11♦0,3♦0.2)
asthetic(16,11♦0,3♦1)
asthetic(17,11♦0,3♦1)
asthetic(18,11♦0,3♦1)
asthetic(19,11♦0,3♦1)
asthetic(20,11♦0,3♦1)
asthetic(21,11♦0,3♦1)
asthetic(22,11♦0,3♦1)
asthetic(22,12♦0,3♦1)
asthetic(22,13♦0,3♦1)
asthetic(22,14♦0,3♦1)
asthetic(22,15♦0,3♦1)
asthetic(22,16♦0,3♦1)
asthetic(22,17♦0,3♦1)
asthetic(22,18♦0,3♦1)
asthetic(22,19♦0,3♦1)
asthetic(22,21♦0,3♦1)
asthetic(22,22♦0,3♦1)
asthetic(22,23♦0,3♦1)
asthetic(22,24♦0,3♦1)
asthetic(21,24♦0,3♦1)
asthetic(20,24♦0,3♦1)
asthetic(19,24♦0,3♦1)
asthetic(9,11♦0,3♦1)
asthetic(8,11♦0,3♦1)
asthetic(7,11♦0,3♦0.2)
asthetic(6,11♦0,3♦1)
asthetic(5,11♦0,3♦1)
asthetic(3,11♦0,3♦1)
asthetic(2,11♦0,3♦1)
asthetic(1,11♦0,3♦1)
asthetic(0,11♦0,3♦1)
asthetic(0,12♦0,3♦1)
asthetic(0,13♦0,3♦1)
asthetic(0,14♦0,3♦1)
asthetic(0,15♦0,3♦1)
asthetic(0,16♦0,3♦1)
asthetic(0,17♦0,3♦1)
asthetic(0,18♦0,3♦1)
asthetic(0,19♦0,3♦1)
asthetic(0,20♦0,3♦1)
asthetic(0,21♦0,3♦1)
asthetic(0,22♦0,3♦1)
asthetic(0,23♦0,3♦1)
asthetic(0,24♦0,3♦1)
asthetic(1,24♦0,3♦1)
asthetic(2,24♦0,3♦1)
asthetic(3,24♦0,3♦1)
button(3,22♦0♦True♦11,11)
gem(6,3)
gem(8,3)
gem(3,2)
gem(8,7)
gem(1,9)
gem(1,7)
exit(11,4)
gem(7,14)
gem(7,12)
gem(15,12)
gem(15,14)
gem(18,9)
gem(16,8)
gem(17,10)
gem(17,2)
gem(19,2)
button(4,2♦0♦True♦11,9)
button(18,2♦0♦True♦11,8)
button(19,22♦0♦True♦11,10)
door(11,10♦0)
door(11,9♦0)
door(11,8♦0)
asthetic(4,11♦0,3♦1)
asthetic(22,20♦0,3♦1)
asthetic(3,23♦2,4♦1)
asthetic(12,10♦1,4♦1)
asthetic(12,8♦1,4♦1)
asthetic(10,11♦1,3♦1)
asthetic(10,9♦1,3♦1)
asthetic(4,1♦2,3♦1)
asthetic(18,1♦2,3♦1)
asthetic(19,23♦2,4♦0.5)
asthetic(13,8♦0,3♦1)
asthetic(13,7♦0,3♦1)
box(3,18♦normal)
